Assignment 4, MSB 105, 2025
…
dim(gdp)

[1] 30058     3

gdp

# A tibble: 30,058 × 3
   geo   time     gdp_n3
   <chr> <chr>     <dbl>
 1 AL011 2008  551130000
 2 AL011 2009  582160000
 3 AL011 2010  664070000
 4 AL011 2011  631170000
 5 AL011 2012  717600000
 6 AL011 2013  696860000
 7 AL011 2014  735600000
 8 AL011 2015  788630000
 9 AL011 2016  801980000
10 AL011 2017  800660000
# ℹ 30,048 more rows
…
dim(pop)

[1] 30038     3

pop

# A tibble: 30,038 × 3
   geo   time  pop_n3
   <chr> <chr>  <dbl>
 1 AL011 2001  186720
 2 AL011 2002  182380
 3 AL011 2003  178710
 4 AL011 2004  174710
 5 AL011 2005  170370
 6 AL011 2006  165610
 7 AL011 2007  160540
 8 AL011 2008  155390
 9 AL011 2009  150430
10 AL011 2010  146140
# ℹ 30,028 more rows
…
